<svg width="29" height="29" viewBox="0 0 29 29" fill="none" xmlns="http://www.w3.org/2000/svg">
<path d="M13.5544 10.7564V14.5043C14.9908 14.829 16.2676 15.3628 17.6049 15.7315V11.9782C16.1741 11.659 14.8863 11.1252 13.5544 10.7564ZM25.8436 3.98722C23.9559 4.86226 21.6335 5.74281 19.4046 5.74281C16.4602 5.74281 14.0222 3.82762 10.3129 3.82762C8.93704 3.82762 7.70978 4.06977 6.57057 4.48803C6.72466 4.08628 6.79621 3.65151 6.76869 3.18922C6.66963 1.62624 5.38733 0.371461 3.81885 0.30542C2.05775 0.233876 0.610352 1.64275 0.610352 3.38734C0.610352 4.43299 1.13318 5.35757 1.93118 5.91342V27.1622C1.93118 27.8941 2.52004 28.483 3.252 28.483H4.13255C4.8645 28.483 5.45337 27.8941 5.45337 27.1622V21.9669C7.01084 21.301 8.95355 20.7507 11.7493 20.7507C14.6991 20.7507 17.1317 22.6659 20.841 22.6659C23.4936 22.6659 25.6124 21.7688 27.5827 20.415C28.0615 20.0848 28.3421 19.5454 28.3421 18.9621V5.58321C28.3476 4.30091 27.0103 3.44788 25.8436 3.98722ZM9.5039 18.2191C8.08401 18.3677 6.75218 18.6704 5.45337 19.1327V15.2527C6.89527 14.7409 8.0675 14.4272 9.5039 14.2951V18.2191ZM25.706 10.817C24.4072 11.3563 23.1579 11.8901 21.6555 12.1323V16.0452C23.0203 15.8581 24.4842 15.3958 25.706 14.6143V18.4943C24.3246 19.3803 23.0368 19.8536 21.6555 19.9857V16.0452C20.1695 16.2489 19.0193 16.1278 17.6049 15.737V19.4464C16.2896 19.0391 15.0018 18.5273 13.5544 18.2741V14.5043C12.4702 14.2621 11.309 14.13 9.5039 14.2951V10.4427C8.27113 10.6133 7.04937 11.0041 5.45337 11.593V7.71304C7.28051 7.04162 8.21059 6.62336 9.5039 6.50228V10.4427C10.9898 10.2391 12.1676 10.3712 13.5544 10.7564V7.04712C14.8587 7.45438 16.152 7.9662 17.6049 8.21935V11.9837C18.9093 12.2754 20.2246 12.3634 21.6555 12.1323V8.17533C23.1414 7.91116 24.5338 7.42686 25.706 6.93706V10.817Z" fill="#3682F7"/>
</svg>
