<svg width="29" height="29" viewBox="0 0 29 29" fill="none" xmlns="http://www.w3.org/2000/svg">
<path d="M27.9428 9.92418L25.7634 7.74483C25.2461 7.2275 24.4096 7.2275 23.8978 7.74483L10.717 20.9255L4.58622 14.7892C4.0689 14.2719 3.23238 14.2719 2.72056 14.7892L0.535697 16.9741C0.0183744 17.4914 0.0183744 18.3279 0.535697 18.8452L9.78146 28.0965C10.2988 28.6138 11.1353 28.6138 11.6471 28.0965L27.9373 11.7954C28.4546 11.2725 28.4546 10.436 27.9428 9.92418ZM10.0952 15.7578C10.4364 16.1045 10.9977 16.1045 11.3389 15.7578L22.7861 4.29968C23.1273 3.95296 23.1273 3.39712 22.7861 3.0559L20.2985 0.562848C19.9573 0.216132 19.396 0.216132 19.0547 0.562848L10.717 8.90055L7.66815 5.84614C7.32693 5.49943 6.76558 5.49943 6.42437 5.84614L3.93131 8.3392C3.5901 8.68591 3.5901 9.24176 3.93131 9.58297L10.0952 15.7578Z" fill="#3682F7"/>
</svg>
